[
    {
        "Name": "CryptoPunks",
        "ID": "0",
		"ContractAddress": "0xb47e3cd837dDF8e4c57F05d70Ab865de6e193BBB",
        "AcquiredBy": "Yuga Labs LLC",
        "Endorsements": [],
        "TrusthWorthiness": {
            "DARE": "0.812",
            "User": "0.987"
        },
        "NoOfItemsInCollection": "9,999",
        "CollectionWebsite": {
            "Url": "https://www.larvalabs.com/cryptopunks",
            "RegisteredDate": "",
            "RegisteredTo": "",
            "ImageUrl": ""
        },
        "ToolsUrl": {
            "RarityUrl": "https://rarity.tools/cryptopunks",
            "OpenSeaUrl": "",
            "BinanceUrl": "",
            "RariableUrl": ""
        },
        "CreatedOn": "",
        "DiscovedredOn": "2022-05-28 02:21",
        "UpdatedOn": "",
        "Creator": [
            {
            "Name": "Matt Hall",
			"Website": "https://www.docracy.com",
            "Presence": {
                "SM": [
                    {
                        "Name": "Facebook",
                        "Handle": "",
                        "Since": "",
                        "Friends": ""
                    },
                    {
                        "Name": "LinkedIn",
                        "Handle": "linkedin.com/in/matthallnyc",
                        "Since": "2005",
                        "Friends": "703"
                    }
                ],
                "Others": {
                    "Phones": [],
                    "Emails": [
                        ""
                    ]
                }
            },
            "OtherProjects": [
				{
					"Name": "Bored Ape Yatch Club",
					"ID": "0xBC4CA0EdA7647A8aB7C2061c2E118A18a936f13D",
					"CollectionWebsiteUrl": "http://www.boredapeyachtclub.com/"
				},
				{
					"Name": "Bored Ape Kennel Club",
					"ID": "0xba30E5F9Bb24caa003E9f2f0497Ad287FDF95623",
					"CollectionWebsiteUrl": "https://boredapeyachtclub.com/#/kennel-club"
				},
				{
					"Name": "Mutant Ape Yacht Club",
					"ID": "0x60e4d786628fea6478f785a6d7e704777c86a7c6",
					"CollectionWebsiteUrl": "https://boredapeyachtclub.com/#/mayc"
				},
				{
					"Name": "Meebits",
					"ID": "0x7Bd29408f11D2bFC23c34f18275bBf23bB716Bc7",
					"CollectionWebsiteUrl": "https://meebits.app"
				}
			]
        }],
        "MintDate": "",
        "ProjectSocialMedia": {
            "Twitter": {
                "Handle": "https://twitter.com/larvalabs",
                "Followers": "8,737 Followers",
                "Created": "Joined March 2022",
                "DailyNWGrowth": "",
                "DailyActivity": "",
                "NoOfTweets": "0 Tweets"
            },
            "Instagram": {
                "Handle": "",
                "Followers": "",
                "CreatedDate": "",
                "DailyNWGrowth": "",
                "DailyActivity": "",
                "Admins": "",
                "Posts": "",
                "Following": ""
            },
            "Discord": {
                "Handle": "https://discord.gg/tQp4pSE",
                "Followers": "64,292 Members",
                "Created": "",
                "DailyNWGrowth": "",
                "DailyActivity": "",
                "Admins": "",
                "MembersOnline": "6,673 Online"
            },
            "LinkedIn": {
                "Handle": "https://www.linkedin.com/company/larvalabs/about/",
                "Followers": "2066",
                "Created": "2005",
                "DailyNWGrowth": "",
                "DailyActivity": "",
                "Admins": "",
                "MembersOnline": ""
            }
        },
        "TradingDetails": [
            {
                "Date": "2022-05-28 02:21",
                "Owners": "3,457",
                "1,794.31 ETHays": "1,794.31 ETH",
                "Sales7days": "43",
                "VolumeAllTime": "909,090.35 ETH",
                "SalesAllTime": "20,249",
                "AvgPrice7days": "41.73 ETH",
                "EstimatedMktCap": "417,239.67 ETH"
            }
        ]
    },
    {
        "Name": "Bored Ape Yatch Club",
        "ID": "1",
        "AcquiredBy": "",
		"ContractAddress": "0xBC4CA0EdA7647A8aB7C2061c2E118A18a936f13D",
        "Endorsements": [],
        "TrusthWorthiness": {
            "DARE": "0.812",
            "User": "0.987"
        },
        "NoOfItemsInCollection": "9,999",
        "CollectionWebsite": {
            "Url": "http://www.boredapeyachtclub.com/",
            "RegisteredDate": "",
            "RegisteredTo": "",
            "ImageUrl": ""
        },
        "ToolsUrl": {
            "RarityUrl": "https://rarity.tools/boredapeyachtclub",
            "OpenSeaUrl": "",
            "BinanceUrl": "",
            "RariableUrl": ""
        },
        "CreatedOn": "",
        "DiscovedredOn": "2022-05-28 02:21",
        "UpdatedOn": "",
        "Creator": [
            {
            "Name": "Yuga Labs LLC",
			"Website": "https://yuga.com",
            "Presence": {
                "SM": [
                    {
                        "Name": "Facebook",
                        "Handle": "https://www.facebook.com/yugalabs.io",
                        "Since": "",
                        "Friends": "153"
                    },
                    {
                        "Name": "LinkedIn",
                        "Handle": "https://www.linkedin.com/company/yuga-labs/",
                        "Since": "",
                        "Friends": "7967"
                    }
                ],
                "Others": {
                    "Phones": [],
                    "Emails": [
                        ""
                    ]
                }
            },
            "OtherProjects": [
				{
					"Name": "Mutant Ape Yatch Club",
					"ID": "0x60e4d786628fea6478f785a6d7e704777c86a7c6",
					"CollectionWebsiteUrl": "https://boredapeyachtclub.com/#/mayc"
				},
				{
					"Name": "Bored Ape Kennel Club",
					"ID": "0xba30E5F9Bb24caa003E9f2f0497Ad287FDF95623",
					"CollectionWebsiteUrl": "https://boredapeyachtclub.com/#/kennel-club"
				},
				{
					"Name": "CryptoPunks",
					"ID": "0xb47e3cd837dDF8e4c57F05d70Ab865de6e193BBB",
					"CollectionWebsiteUrl": "https://cryptopunks.app"
				},
				{
					"Name": "Meebits",
					"ID": "0x7Bd29408f11D2bFC23c34f18275bBf23bB716Bc7",
					"CollectionWebsiteUrl": "https://meebits.app"
				}
			]
        }],
        "MintDate": "",
        "ProjectSocialMedia": {
            "Twitter": {
                "Handle": "https://twitter.com/BoredApeYC",
                "Followers": "954.1K Followers",
                "Created": "Joined April 2021",
                "DailyNWGrowth": "",
                "DailyActivity": "",
                "NoOfTweets": "5,159 Tweets"
            },
            "Instagram": {
                "Handle": "",
                "Followers": "",
                "CreatedDate": "",
                "DailyNWGrowth": "",
                "DailyActivity": "",
                "Admins": "",
                "Posts": "",
                "Following": ""
            },
            "Discord": {
                "Handle": "https://discord.gg/3P5K3dzgdB",
                "Followers": "204,763 Members",
                "Created": "",
                "DailyNWGrowth": "",
                "DailyActivity": "",
                "Admins": "",
                "MembersOnline": "21,360 Online"
            },
            "LinkedIn": {
                "Handle": "",
                "Followers": "",
                "Created": "",
                "DailyNWGrowth": "",
                "DailyActivity": "",
                "Admins": "",
                "MembersOnline": ""
            }
        },
        "TradingDetails": [
            {
                "Date": "2022-05-28 02:21",
                "Owners": "6,264",
                "5,144.49 ETHays": "5,144.49 ETH",
                "Sales7days": "48",
                "VolumeAllTime": "578,381.89 ETH",
                "SalesAllTime": "26,224",
                "AvgPrice7days": "107.18 ETH",
                "EstimatedMktCap": "1,071,661.70 ETH"
            }
        ]
    },
    {
        "Name": "Mutant Ape Yacht Club",
        "ID": "2",
		"ContractAddress": "0x60e4d786628fea6478f785a6d7e704777c86a7c6",
        "AcquiredBy": "",
        "Endorsements": [],
        "TrusthWorthiness": {
            "DARE": "0.812",
            "User": "0.987"
        },
        "NoOfItemsInCollection": "19,414",
        "CollectionWebsite": {
            "Url": "",
            "RegisteredDate": "",
            "RegisteredTo": "",
            "ImageUrl": ""
        },
        "ToolsUrl": {
            "RarityUrl": "https://rarity.tools/mutant-ape-yacht-club",
            "OpenSeaUrl": "",
            "BinanceUrl": "",
            "RariableUrl": ""
        },
        "CreatedOn": "",
        "DiscovedredOn": "2022-05-28 02:21",
        "UpdatedOn": "",
        "Creator": [
            {
            "Name": "Yuga Labs LLC",
			"Website": "https://yuga.com",
            "Presence": {
                "SM": [
                    {
                        "Name": "Facebook",
                        "Handle": "https://www.facebook.com/yugalabs.io",
                        "Since": "",
                        "Friends": "153"
                    },
                    {
                        "Name": "LinkedIn",
                        "Handle": "https://www.linkedin.com/company/yuga-labs/",
                        "Since": "",
                        "Friends": "7967"
                    }
                ],
                "Others": {
                    "Phones": [],
                    "Emails": [
                        ""
                    ]
                }
            },
            "OtherProjects": [
				{
					"Name": "Bored Ape Yatch Club",
					"ID": "0xBC4CA0EdA7647A8aB7C2061c2E118A18a936f13D",
					"CollectionWebsiteUrl": "http://www.boredapeyachtclub.com/"
				},
				{
					"Name": "Bored Ape Kennel Club",
					"ID": "0xba30E5F9Bb24caa003E9f2f0497Ad287FDF95623",
					"CollectionWebsiteUrl": "https://boredapeyachtclub.com/#/kennel-club"
				},
				{
					"Name": "CryptoPunks",
					"ID": "0xb47e3cd837dDF8e4c57F05d70Ab865de6e193BBB",
					"CollectionWebsiteUrl": "https://cryptopunks.app"
				},
				{
					"Name": "Meebits",
					"ID": "0x7Bd29408f11D2bFC23c34f18275bBf23bB716Bc7",
					"CollectionWebsiteUrl": "https://meebits.app"
				}
			]
        }],
        "MintDate": "",
        "ProjectSocialMedia": {
            "Twitter": {
                "Handle": "",
                "Followers": "",
                "Created": "",
                "DailyNWGrowth": "",
                "DailyActivity": "",
                "NoOfTweets": ""
            },
            "Instagram": {
                "Handle": "",
                "Followers": "",
                "CreatedDate": "",
                "DailyNWGrowth": "",
                "DailyActivity": "",
                "Admins": "",
                "Posts": "",
                "Following": ""
            },
            "Discord": {
                "Handle": "",
                "Followers": "",
                "Created": "",
                "DailyNWGrowth": "",
                "DailyActivity": "",
                "Admins": "",
                "MembersOnline": ""
            }
        },
        "TradingDetails": [
            {
                "Date": "2022-05-28 02:21",
                "Owners": "12,562",
                "3,763.69 ETHays": "3,763.69 ETH",
                "Sales7days": "177",
                "VolumeAllTime": "403,285.95 ETH",
                "SalesAllTime": "31,943",
                "AvgPrice7days": "21.26 ETH",
                "EstimatedMktCap": "412,814.92 ETH"
            }
        ]
    },
    {
        "Name": "CLONE X - X TAKASHI MURAKAMI",
        "ID": "3",
		"ContractAddress": "0x49cF6f5d44E70224e2E23fDcdd2C053F30aDA28B",
        "AcquiredBy": "Nike Inc",
        "Endorsements": [],
        "TrusthWorthiness": {
            "DARE": "0.812",
            "User": "0.987"
        },
        "NoOfItemsInCollection": "19,295",
        "CollectionWebsite": {
            "Url": "https://clonex.rtfkt.com/",
            "RegisteredDate": "",
            "RegisteredTo": "",
            "ImageUrl": ""
        },
        "ToolsUrl": {
            "RarityUrl": "https://rarity.tools/clonex",
            "OpenSeaUrl": "",
            "BinanceUrl": "",
            "RariableUrl": ""
        },
        "CreatedOn": "2020",
        "DiscovedredOn": "2022-05-28 02:21",
        "UpdatedOn": "",        
        "Creator": [
            {
                "Name": "Benoit Pagotto",
                "Presence": {
                    "SM": [
                        {
                            "Name": "Facebook",
                            "Handle": "",
                            "Since": "",
                            "Friends": ""
                        },
                        {
                            "Name": "LinkedIn",
                            "Handle": "linkedin.com/in/benitopagotto",
                            "Since": "",
                            "Friends": "17019"
                        },
                        {
                            "Name": "Instagram",
                            "Handle": "https://www.instagram.com/benit0/",
                            "Since": "",
                            "Friends": "15000"
                        },
                        {
                            "Name": "Twitter",
                            "Handle": "https://twitter.com/benitopagotto",
                            "Since": "October 2009",
                            "Friends": "74900"
                        }
                    ],
                    "Others": {
                        "Phones": [],
                        "Emails": [
                            ""
                        ]
                    }
                },
                "OtherProjects": {
                    "Name": "",
                    "ID": "",
                    "CollectionWebsiteUrl": ""
                }
            },
            {
                "Name": "Chris Le",
                "Presence": {
                    "SM": [
                        {
                            "Name": "Facebook",
                            "Handle": "",
                            "Since": "",
                            "Friends": ""
                        },
                        {
                            "Name": "LinkedIn",
                            "Handle": "linkedin.com/in/clegfx",
                            "Since": "",
                            "Friends": ""
                        },
                        {
                            "Name": "Instagram",
                            "Handle": "https://www.instagram.com/clegfx/",
                            "Since": "",
                            "Friends": "91600"
                        },
                        {
                            "Name": "Twitter",
                            "Handle": "https://twitter.com/clegfx",
                            "Since": "June 2009",
                            "Friends": "81800"
                        }
                    ],
                    "Others": {
                        "Phones": [],
                        "Emails": [
                            ""
                        ]
                    }
                },
                "OtherProjects": {
                    "Name": "",
                    "ID": "",
                    "CollectionWebsiteUrl": ""
                }
            },
            {
                "Name": "Steven Vasilev",
                "Presence": {
                    "SM": [
                        {
                            "Name": "Facebook",
                            "Handle": "",
                            "Since": "",
                            "Friends": ""
                        },
                        {
                            "Name": "LinkedIn",
                            "Handle": "linkedin.com/in/zaptio",
                            "Since": "",
                            "Friends": ""
                        },
                        {
                            "Name": "Instagram",
                            "Handle": "https://www.instagram.com/zaptio/",
                            "Since": "",
                            "Friends": "125000"
                        },
                        {
                            "Name": "Twitter",
                            "Handle": "https://twitter.com/Zaptio",
                            "Since": "March 2010",
                            "Friends": "71300"
                        }
                    ],
                    "Others": {
                        "Phones": [],
                        "Emails": [
                            ""
                        ]
                    }
                },
                "OtherProjects": {
                    "Name": "",
                    "ID": "",
                    "CollectionWebsiteUrl": ""
                }
            }

        ],
        "MintDate": "",
        "ProjectSocialMedia": {
            "Twitter": {
                "Handle": "https://twitter.com/RTFKTstudios",
                "Followers": "889 Followers",
                "Created": "Joined May 2022",
                "DailyNWGrowth": "",
                "DailyActivity": "",
                "NoOfTweets": "2 Tweets"
            },
            "Instagram": {
                "Handle": "https://www.instagram.com/rtfktstudios/",
                "Followers": "460000",
                "CreatedDate": "",
                "DailyNWGrowth": "",
                "DailyActivity": "",
                "Admins": "",
                "Posts": "147",
                "Following": "516"
            },
            "Discord": {
                "Handle": "https://discord.gg/RTFKT",
                "Followers": "177,534 Members",
                "Created": "",
                "DailyNWGrowth": "",
                "DailyActivity": "",
                "Admins": "",
                "MembersOnline": "16,917 Online"
            },
			"LinkedIn": {
                "Handle": "https://www.linkedin.com/company/rtfkt/",
                "Followers": "15982",
                "Created": "",
                "DailyNWGrowth": "",
                "DailyActivity": "",
                "Admins": "",
                "MembersOnline": "16,917 Online"
            }
        },
        "TradingDetails": [
            {
                "Date": "2022-05-28 02:21",
                "Owners": "9,284",
                "2,279.61 ETHays": "2,279.61 ETH",
                "Sales7days": "147",
                "VolumeAllTime": "203,368.93 ETH",
                "SalesAllTime": "16,416",
                "AvgPrice7days": "15.51 ETH",
                "EstimatedMktCap": "299,217.81 ETH"
            }
        ]
    },
    {
        "Name": "Meebits",
        "ID": "4",
        "ContractAddress": "0x7Bd29408f11D2bFC23c34f18275bBf23bB716Bc7",
        "AcquiredBy": "Yuga Labs LLC",
        "Endorsements": [],
        "TrusthWorthiness": {
            "DARE": "0.812",
            "User": "0.987"
        },
        "NoOfItemsInCollection": "20,000",
        "CollectionWebsite": {
            "Url": "",
            "RegisteredDate": "",
            "RegisteredTo": "",
            "ImageUrl": ""
        },
        "ToolsUrl": {
            "RarityUrl": "https://rarity.tools/meebits",
            "OpenSeaUrl": "",
            "BinanceUrl": "",
            "RariableUrl": ""
        },
        "CreatedOn": "",
        "DiscovedredOn": "2022-05-28 02:21",
        "UpdatedOn": "",
        "Creator": [
            {
            "Name": "Matt Hall",
			"Website": "https://www.docracy.com",
            "Presence": {
                "SM": [
                    {
                        "Name": "Facebook",
                        "Handle": "",
                        "Since": "",
                        "Friends": ""
                    },
                    {
                        "Name": "LinkedIn",
                        "Handle": "linkedin.com/in/matthallnyc",
                        "Since": "2005",
                        "Friends": "703"
                    }
                ],
                "Others": {
                    "Phones": [],
                    "Emails": [
                        ""
                    ]
                }
            },
            "OtherProjects": [
				{
					"Name": "Bored Ape Yatch Club",
					"ID": "0xBC4CA0EdA7647A8aB7C2061c2E118A18a936f13D",
					"CollectionWebsiteUrl": "http://www.boredapeyachtclub.com/"
				},
				{
					"Name": "Bored Ape Kennel Club",
					"ID": "0xba30E5F9Bb24caa003E9f2f0497Ad287FDF95623",
					"CollectionWebsiteUrl": "https://boredapeyachtclub.com/#/kennel-club"
				},
				{
					"Name": "Mutant Ape Yacht Club",
					"ID": "0x60e4d786628fea6478f785a6d7e704777c86a7c6",
					"CollectionWebsiteUrl": "https://boredapeyachtclub.com/#/mayc"
				},
				{
					"Name": "CryptoPunks",
					"ID": "0xb47e3cd837dDF8e4c57F05d70Ab865de6e193BBB",
					"CollectionWebsiteUrl": "https://www.larvalabs.com/cryptopunks"
				}
			]
        }],
        "MintDate": "",
        "ProjectSocialMedia": {
            "Twitter": {
                "Handle": "https://twitter.com/larvalabs",
                "Followers": "8,737 Followers",
                "Created": "Joined March 2022",
                "DailyNWGrowth": "",
                "DailyActivity": "",
                "NoOfTweets": "0 Tweets"
            },
            "Instagram": {
                "Handle": "",
                "Followers": "",
                "CreatedDate": "",
                "DailyNWGrowth": "",
                "DailyActivity": "",
                "Admins": "",
                "Posts": "",
                "Following": ""
            },
            "Discord": {
                "Handle": "https://discord.gg/tQp4pSE",
                "Followers": "64,292 Members",
                "Created": "",
                "DailyNWGrowth": "",
                "DailyActivity": "",
                "Admins": "",
                "MembersOnline": "6,673 Online"
            }
        },
        "TradingDetails": [
            {
                "Date": "2022-05-28 02:21",
                "Owners": "6,543",
                "466.49 ETHays": "466.49 ETH",
                "Sales7days": "92",
                "VolumeAllTime": "119,716.91 ETH",
                "SalesAllTime": "21,600",
                "AvgPrice7days": "5.07 ETH",
                "EstimatedMktCap": "101,411.72 ETH"
            }
        ]
    },
    {
        "Name": "Cool Cats NFT",
        "ID": "5",
        "ContractAddress": "0x1A92f7381B9F03921564a437210bB9396471050C",
        "AcquiredBy": "",
        "Endorsements": [ "Marc Benioff", "Reece Witherspoon" ],
        "TrusthWorthiness": {
            "DARE": "0.812",
            "User": "0.987"
        },
        "NoOfItemsInCollection": "9,941",
        "CollectionWebsite": {
            "Url": "http://coolcatsnft.com",
            "RegisteredDate": "",
            "RegisteredTo": "",
            "ImageUrl": ""
        },
        "ToolsUrl": {
            "RarityUrl": "https://rarity.tools/cool-cats-nft",
            "OpenSeaUrl": "",
            "BinanceUrl": "",
            "RariableUrl": ""
        },
        "CreatedOn": "July 2021",
        "DiscovedredOn": "2022-05-28 02:21",
        "UpdatedOn": "",
        "Creator": [
            {
                "Name": "Colin Egan (clon)",
                "Presence": {
                    "SM": [
                        {
                            "Name": "Facebook",
                            "Handle": "",
                            "Since": "",
                            "Friends": ""
                        },
                        {
                            "Name": "LinkedIn",
                            "Handle": "",
                            "Since": "",
                            "Friends": ""
                        },
                        {
                            "Name": "Instagram",
                            "Handle": "",
                            "Since": "",
                            "Friends": "15000"
                        },
                        {
                            "Name": "Twitter",
                            "Handle": "https://twitter.com/cloncast",
                            "Since": "May 2021",
                            "Friends": "67900"
                        }
                    ],
                    "Others": {
                        "Phones": [],
                        "Emails": [
                            ""
                        ]
                    }
                },
                "OtherProjects": {
                    "Name": "",
                    "ID": "",
                    "CollectionWebsiteUrl": ""
                }
            },
            {
                "Name": "Tom Williamson (Xtremetom)",
                "Presence": {
                    "SM": [
                        {
                            "Name": "Facebook",
                            "Handle": "",
                            "Since": "",
                            "Friends": ""
                        },
                        {
                            "Name": "LinkedIn",
                            "Handle": "",
                            "Since": "",
                            "Friends": ""
                        },
                        {
                            "Name": "Instagram",
                            "Handle": "",
                            "Since": "",
                            "Friends": ""
                        },
                        {
                            "Name": "Twitter",
                            "Handle": "https://twitter.com/xtremetom",
                            "Since": "January 2016",
                            "Friends": "16300"
                        }
                    ],
                    "Others": {
                        "Phones": [],
                        "Emails": [
                            ""
                        ]
                    }
                },
                "OtherProjects": {
                    "Name": "",
                    "ID": "",
                    "CollectionWebsiteUrl": ""
                }
            },
            {
                "Name": "Rob Mehew (Lynqoid)",
                "Presence": {
                    "SM": [
                        {
                            "Name": "Facebook",
                            "Handle": "",
                            "Since": "",
                            "Friends": ""
                        },
                        {
                            "Name": "LinkedIn",
                            "Handle": "",
                            "Since": "",
                            "Friends": ""
                        },
                        {
                            "Name": "Instagram",
                            "Handle": "",
                            "Since": "",
                            "Friends": ""
                        },
                        {
                            "Name": "Twitter",
                            "Handle": "https://twitter.com/lynqoid",
                            "Since": "October 2011",
                            "Friends": "11400"
                        }
                    ],
                    "Others": {
                        "Phones": [],
                        "Emails": [
                            ""
                        ]
                    }
                },
                "OtherProjects": {
                    "Name": "",
                    "ID": "",
                    "CollectionWebsiteUrl": ""
                }
            },
            {
                "Name": "Evan Luza (Elu)",
                "Presence": {
                    "SM": [
                        {
                            "Name": "Facebook",
                            "Handle": "",
                            "Since": "",
                            "Friends": ""
                        },
                        {
                            "Name": "LinkedIn",
                            "Handle": "",
                            "Since": "",
                            "Friends": ""
                        },
                        {
                            "Name": "Instagram",
                            "Handle": "",
                            "Since": "",
                            "Friends": ""
                        },
                        {
                            "Name": "Twitter",
                            "Handle": "https://twitter.com/evanluza",
                            "Since": "January 2016",
                            "Friends": "16300"
                        }
                    ],
                    "Others": {
                        "Phones": [],
                        "Emails": [
                            ""
                        ]
                    }
                },
                "OtherProjects": {
                    "Name": "",
                    "ID": "",
                    "CollectionWebsiteUrl": ""
                }
            }

        ],
        "MintDate": "",
        "ProjectSocialMedia": {
            "Twitter": {
                "Handle": "https://twitter.com/coolcatsnft",
                "Followers": "205500",
                "Created": "May 2021",
                "DailyNWGrowth": "",
                "DailyActivity": "",
                "NoOfTweets": ""
            },
            "Instagram": {
                "Handle": "",
                "Followers": "",
                "CreatedDate": "",
                "DailyNWGrowth": "",
                "DailyActivity": "",
                "Admins": "",
                "Posts": "",
                "Following": ""
            },
            "Discord": {
                "Handle": "https://discord.gg/X6A4AXrKaR",
                "Followers": "99,712 Members",
                "Created": "",
                "DailyNWGrowth": "",
                "DailyActivity": "",
                "Admins": "",
                "MembersOnline": "10,414 Online"
            }
        },
        "TradingDetails": [
            {
                "Date": "2022-05-28 02:21",
                "Owners": "5,541",
                "391.49 ETHays": "391.49 ETH",
                "Sales7days": "95",
                "VolumeAllTime": "106,716.10 ETH",
                "SalesAllTime": "28,516",
                "AvgPrice7days": "4.12 ETH",
                "EstimatedMktCap": "40,966.09 ETH"
            }
        ]
    },
    {
        "Name": "Bored Ape Kennel Club",
        "ID": "6",
        "AcquiredBy": "",
		"ContractAddress": "0xba30E5F9Bb24caa003E9f2f0497Ad287FDF95623",
        "Endorsements": [],
        "TrusthWorthiness": {
            "DARE": "0.812",
            "User": "0.987"
        },
        "NoOfItemsInCollection": "9,602",
        "CollectionWebsite": {
            "Url": "http://boredapeyachtclub.com/#/kennel-club",            
            "RegisteredDate": "",
            "RegisteredTo": "",
            "ImageUrl": ""
        },
        "ToolsUrl": {
            "RarityUrl": "https://rarity.tools/bored-ape-kennel-club",
            "OpenSeaUrl": "",
            "BinanceUrl": "",
            "RariableUrl": ""
        },
        "CreatedOn": "",
        "DiscovedredOn": "2022-05-28 02:21",
        "UpdatedOn": "",
        "Creator": [
            {
            "Name": "Yuga Labs LLC",
			"Website": "https://yuga.com",
            "Presence": {
                "SM": [
                    {
                        "Name": "Facebook",
                        "Handle": "https://www.facebook.com/yugalabs.io",
                        "Since": "",
                        "Friends": "153"
                    },
                    {
                        "Name": "LinkedIn",
                        "Handle": "https://www.linkedin.com/company/yuga-labs/",
                        "Since": "",
                        "Friends": "7967"
                    }
                ],
                "Others": {
                    "Phones": [],
                    "Emails": [
                        ""
                    ]
                }
            },
            "OtherProjects": [
				{
					"Name": "Mutant Ape Yatch Club",
					"ID": "0x60e4d786628fea6478f785a6d7e704777c86a7c6",
					"CollectionWebsiteUrl": "https://boredapeyachtclub.com/#/mayc"
				},
				{
					"Name": "Bored Ape Yatch Club",
					"ID": "0xBC4CA0EdA7647A8aB7C2061c2E118A18a936f13D",
					"CollectionWebsiteUrl": "http://www.boredapeyachtclub.com/"
				},
				{
					"Name": "CryptoPunks",
					"ID": "0xb47e3cd837dDF8e4c57F05d70Ab865de6e193BBB",
					"CollectionWebsiteUrl": "https://cryptopunks.app"
				},
				{
					"Name": "Meebits",
					"ID": "0x7Bd29408f11D2bFC23c34f18275bBf23bB716Bc7",
					"CollectionWebsiteUrl": "https://meebits.app"
				}
			]
        }],
        "MintDate": "",
        "ProjectSocialMedia": {
            "Twitter": {
                "Handle": "https://twitter.com/boredapeyc",
                "Followers": "954.1K Followers",
                "Created": "Joined April 2021",
                "DailyNWGrowth": "",
                "DailyActivity": "",
                "NoOfTweets": "5,159 Tweets"
            },
            "Instagram": {
                "Handle": "",
                "Followers": "",
                "CreatedDate": "",
                "DailyNWGrowth": "",
                "DailyActivity": "",
                "Admins": "",
                "Posts": "",
                "Following": ""
            },
            "Discord": {
                "Handle": "https://discord.gg/wjH7hGz2yS",
                "Followers": "204,763 Members",
                "Created": "",
                "DailyNWGrowth": "",
                "DailyActivity": "",
                "Admins": "",
                "MembersOnline": "21,360 Online"
            }
        },
        "TradingDetails": [
            {
                "Date": "2022-05-28 02:21",
                "Owners": "5,517",
                "584.77 ETHays": "584.77 ETH",
                "Sales7days": "73",
                "VolumeAllTime": "98,625.68 ETH",
                "SalesAllTime": "21,478",
                "AvgPrice7days": "8.01 ETH",
                "EstimatedMktCap": "76,917.43 ETH"
            }
        ]
    },
    {
        "Name": "Loot (for Adventurers)",
        "ID": "7",
        "AcquiredBy": "",
		"ContractAddress": "0xFF9C1b15B16263C61d017ee9F65C50e4AE0113D7",
        "Endorsements": [],
        "TrusthWorthiness": {
            "DARE": "0.812",
            "User": "0.987"
        },
        "NoOfItemsInCollection": "7,779",
        "CollectionWebsite": {
            "Url": "https://lootproject.com",
            "RegisteredDate": "",
            "RegisteredTo": "",
            "ImageUrl": ""
        },
        "ToolsUrl": {
            "RarityUrl": "https://rarity.tools/lootproject",
            "OpenSeaUrl": "",
            "BinanceUrl": "",
            "RariableUrl": ""
        },
        "CreatedOn": "",
        "DiscovedredOn": "2022-05-28 02:21",
        "UpdatedOn": "",
        "Creator": [
            {
            "Name": "Dom Hofmann",
            "Presence": {
                "SM": [
                    {
                        "Name": "Facebook",
                        "Handle": "",
                        "Since": "",
                        "Friends": ""
                    },
                    {
                        "Name": "Instagram",
                        "Handle": "https://www.instagram.com/dhof_/",
                        "Since": "",
                        "Friends": "933"
                    },
                    {
                        "Name": "Twitter",
                        "Handle": "https://twitter.com/dhof",
                        "Since": "February 2008",
                        "Friends": "153900"
                    }
                ],
                "Others": {
                    "Phones": [],
                    "Emails": [
                        ""
                    ]
                }
            },
            "OtherProjects": {
                "Name": "",
                "ID": "",
                "CollectionWebsiteUrl": ""
            }
        }],
        "MintDate": "",
        "ProjectSocialMedia": {
            "Twitter": {
                "Handle": "",
                "Followers": "",
                "Created": "",
                "DailyNWGrowth": "",
                "DailyActivity": "",
                "NoOfTweets": ""
            },
            "Instagram": {
                "Handle": "",
                "Followers": "",
                "CreatedDate": "",
                "DailyNWGrowth": "",
                "DailyActivity": "",
                "Admins": "",
                "Posts": "",
                "Following": ""
            },
            "Discord": {
                "Handle": "",
                "Followers": "",
                "Created": "",
                "DailyNWGrowth": "",
                "DailyActivity": "",
                "Admins": "",
                "MembersOnline": ""
            }
        },
        "TradingDetails": [
            {
                "Date": "2022-05-28 02:21",
                "Owners": "2,581",
                "39.13 ETHays": "39.13 ETH",
                "Sales7days": "35",
                "VolumeAllTime": "74,416.37 ETH",
                "SalesAllTime": "11,838",
                "AvgPrice7days": "1.12 ETH",
                "EstimatedMktCap": "8,696.10 ETH"
            }
        ]
    },
    {
        "Name": "CrypToadz by GREMPLIN",
        "ID": "8",
        "AcquiredBy": "",
		"ContractAddress": "0x1CB1A5e65610AEFF2551A50f76a87a7d3fB649C6",
        "Endorsements": [],
        "TrusthWorthiness": {
            "DARE": "0.812",
            "User": "0.987"
        },
        "NoOfItemsInCollection": "7,014",
        "CollectionWebsite": {
            "Url": "https://cryptoadz.io",
            "RegisteredDate": "",
            "RegisteredTo": "",
            "ImageUrl": ""
        },
        "ToolsUrl": {
            "RarityUrl": "https://rarity.tools/cryptoadz-by-gremplin",
            "OpenSeaUrl": "",
            "BinanceUrl": "",
            "RariableUrl": ""
        },
        "CreatedOn": "",
        "DiscovedredOn": "2022-05-28 02:21",
        "UpdatedOn": "",
        "Creator": [
            {
            "Name": "",
            "Presence": {
                "SM": [
                    {
                        "Name": "Facebook",
                        "Handle": "",
                        "Since": "",
                        "Friends": ""
                    },
                    {
                        "Name": "LinkedIn",
                        "Handle": "",
                        "Since": "",
                        "Friends": ""
                    }
                ],
                "Others": {
                    "Phones": [],
                    "Emails": [
                        ""
                    ]
                }
            },
            "OtherProjects": {
                "Name": "",
                "ID": "",
                "CollectionWebsiteUrl": ""
            }
        }],
        "MintDate": "",
        "ProjectSocialMedia": {
            "Twitter": {
                "Handle": "https://twitter.com/cryptoadzNFT",
                "Followers": "",
                "Created": "",
                "DailyNWGrowth": "",
                "DailyActivity": "",
                "NoOfTweets": ""
            },
            "Instagram": {
                "Handle": "",
                "Followers": "",
                "CreatedDate": "",
                "DailyNWGrowth": "",
                "DailyActivity": "",
                "Admins": "",
                "Posts": "",
                "Following": ""
            },
            "Discord": {
                "Handle": "https://discord.gg/8QtAYPgjAw",
                "Followers": "10,679 Members",
                "Created": "",
                "DailyNWGrowth": "",
                "DailyActivity": "",
                "Admins": "",
                "MembersOnline": "1,900 Online"
            }
        },
        "TradingDetails": [
            {
                "Date": "2022-05-28 02:21",
                "Owners": "4,160",
                "115.74 ETHays": "115.74 ETH",
                "Sales7days": "51",
                "VolumeAllTime": "69,537.07 ETH",
                "SalesAllTime": "21,183",
                "AvgPrice7days": "2.27 ETH",
                "EstimatedMktCap": "15,917.02 ETH"
            }
        ]
    },
    {
        "Name": "World of Women",
        "ID": "9",
        "AcquiredBy": "",
		"ContractAddress": "0xe785E82358879F061BC3dcAC6f0444462D4b5330",
        "Endorsements": [],
        "TrusthWorthiness": {
            "DARE": "0.812",
            "User": "0.987"
        },
        "NoOfItemsInCollection": "10,000",
        "CollectionWebsite": {
            "Url": "http://worldofwomen.art",
            "RegisteredDate": "",
            "RegisteredTo": "",
            "ImageUrl": ""
        },
        "ToolsUrl": {
            "RarityUrl": "https://rarity.tools/world-of-women-nft",
            "OpenSeaUrl": "",
            "BinanceUrl": "",
            "RariableUrl": ""
        },
        "CreatedOn": "",
        "DiscovedredOn": "2022-05-28 02:21",
        "UpdatedOn": "",
        "Creator": [
        
            {
                "Name": "Yam Karkai",
                "Presence": {
                    "SM": [
                        {
                            "Name": "Facebook",
                            "Handle": "",
                            "Since": "",
                            "Friends": ""
                        },
                        {
                            "Name": "LinkedIn",
                            "Handle": "",
                            "Since": "",
                            "Friends": ""
                        },
                        {
                            "Name": "Twitter",
                            "Handle": "https://twitter.com/YKarkai",
                            "Since": "April 2021",
                            "Friends": "63000"                        
                        },
                        {
                            "Name": "Instagram",
                            "Handle": "https://www.instagram.com/yamkarkaiart/",
                            "Since": "",
                            "Friends": "13900"                                                
                        }
                    ],
                    "Others": {
                        "Phones": [],
                        "Emails": [
                            ""
                        ]
                    }
                },
                "OtherProjects": {
                    "Name": "",
                    "ID": "",
                    "CollectionWebsiteUrl": ""
                }
            },
            {
                "Name": "Raphaël Malavieille",
                "Presence": {
                    "SM": [
                        {
                            "Name": "Facebook",
                            "Handle": "",
                            "Since": "",
                            "Friends": ""
                        },
                        {
                            "Name": "LinkedIn",
                            "Handle": "https://www.linkedin.com/in/raphaelmalavieille/",
                            "Since": "",
                            "Friends": ""
                        },
                        {
                            "Name": "Twitter",
                            "Handle": "https://twitter.com/raphfac",
                            "Since": "October 2013",
                            "Friends": "4942"                        
                        },
                        {
                            "Name": "Instagram",
                            "Handle": "",
                            "Since": "",
                            "Friends": ""                                                
                        }
                    ],
                    "Others": {
                        "Phones": [],
                        "Emails": [
                            ""
                        ]
                    }
                },
                "OtherProjects": {
                    "Name": "",
                    "ID": "",
                    "CollectionWebsiteUrl": ""
                }
            },
            {
                "Name": "TOOMAIE",
                "Presence": {
                    "SM": [
                        {
                            "Name": "Facebook",
                            "Handle": "",
                            "Since": "",
                            "Friends": ""
                        },
                        {
                            "Name": "LinkedIn",
                            "Handle": "",
                            "Since": "",
                            "Friends": ""
                        },
                        {
                            "Name": "Twitter",
                            "Handle": "https://twitter.com/toomaie",
                            "Since": "March 2021",
                            "Friends": "5407"                        
                        },
                        {
                            "Name": "Instagram",
                            "Handle": "",
                            "Since": "",
                            "Friends": ""                                                
                        }
                    ],
                    "Others": {
                        "Phones": [],
                        "Emails": [
                            ""
                        ]
                    }
                },
                "OtherProjects": {
                    "Name": "",
                    "ID": "",
                    "CollectionWebsiteUrl": ""
                }
            }
        ],
        "MintDate": "",
        "ProjectSocialMedia": {
            "Twitter": {
                "Handle": "https://twitter.com/worldofwomennft",
                "Followers": "",
                "Created": "",
                "DailyNWGrowth": "",
                "DailyActivity": "",
                "NoOfTweets": ""
            },
            "Instagram": {
                "Handle": "https://instagram.com/worldofwomen.nft",
                "Followers": "71.5K followers",
                "CreatedDate": "",
                "DailyNWGrowth": "",
                "DailyActivity": "",
                "Admins": "",
                "Posts": "245 posts",
                "Following": "287 following"
            },
            "Discord": {
                "Handle": "https://discord.gg/worldofwomen",
                "Followers": "62,436 Members",
                "Created": "",
                "DailyNWGrowth": "",
                "DailyActivity": "",
                "Admins": "",
                "MembersOnline": "5,899 Online"
            }
        },
        "TradingDetails": [
            {
                "Date": "2022-05-28 02:21",
                "Owners": "5,409",
                "418.88 ETHays": "418.88 ETH",
                "Sales7days": "78",
                "VolumeAllTime": "69,057.60 ETH",
                "SalesAllTime": "23,917",
                "AvgPrice7days": "5.37 ETH",
                "EstimatedMktCap": "53,702.20 ETH"
            }
        ]
    }
]