[{
            "id": 0,
            "num_sales": 1000,
            "background": "orange",
            "image_url": "https://lh3.googleusercontent.com/kd8tOOTSx48xpWgYJeXA34mjsvdARcUdDjC8j7UOcT1pr9XbOl8DhZUb-k3iZSdF-nXQSOMJU1zWlhHKwZhs3XfepNGKCXM0KLJNQg=s120",
            "image_thumbnail_url": "https://lh3.googleusercontent.com/kd8tOOTSx48xpWgYJeXA34mjsvdARcUdDjC8j7UOcT1pr9XbOl8DhZUb-k3iZSdF-nXQSOMJU1zWlhHKwZhs3XfepNGKCXM0KLJNQg=s120",
            "name": "nft sample 1",
            "description": "Mutant Bears Yacht Club holders are invited to join the Bully Apes - a project building tools to level the playing field and support creators. Details on Twitter @BullyApes or visit https://mintbullyape.com/ to MINT NOW! Official Website https://bullyape.com/ Collection on OpenSea: https://opensea.io/collection/bullyapes",
            "tokenId": "0x76815db68ada44ad4",
			"standard":"non-fungible",
			"currnetBid":"10 Ether",
			"convertValue":"$100000",
			"volume":"250K",
			"count":"360",
			"owners":"50",
			"floorPrice":"9 Ether",
			"tradedVolumes":"10",
			"eyes":"3",
			"twitterHandle": "@nfthandlel45",
			"webHandel":"http://www.opensea.com",
			"rating":"7.5/10",
			"wishlistCount":"200",
			"address":"saome address",
			"blockchain":"ethereum",
			"metadata":"some metadata",
			"creatorFees":"5 Ether",
	"traits": [
				{
					"name": "Background",
					"value": "Blue"
				},
				{
					"name": "Clothes",
					"value": "Casual"
				},
				{
					"name": "Hat",
					"value": "Round"
				},
				{
					"name": "Shoulder",
					"value": "Up"
				},
				{
					"name": "Fur",
					"value": "Albino"
				}
			]
 },
 
  {
            "id": 1,
            "num_sales": 450,
            "background": "orange",
            "image_url": "https://lh3.googleusercontent.com/82lDAsUEcWW8xuSuV_hLWq5jZn6li8FZ__okWbwqLp_ZZf8kvtYyTsP3Q-muu2tKpM4rul_AySGgli-PgFnjBqD2OeJpQu8Q3fYIZQ=s120",
            "image_thumbnail_url": "https://lh3.googleusercontent.com/82lDAsUEcWW8xuSuV_hLWq5jZn6li8FZ__okWbwqLp_ZZf8kvtYyTsP3Q-muu2tKpM4rul_AySGgli-PgFnjBqD2OeJpQu8Q3fYIZQ=s120",
            "name": "nft sample 2",
            "description": "Mutant Bears Yacht Club holders are invited to join the Bully Apes - a project building tools to level the playing field and support creators. Details on Twitter @BullyApes or visit https://mintbullyape.com/ to MINT NOW! Official Website https://bullyape.com/ Collection on OpenSea: https://opensea.io/collection/bullyapes",
            "tokenId": "4351bda6b3b669e6d35b4962",
			"standard":"non-fungible",
			"currnetBid":"78 Ether",
			"convertValue":"$897879",
			"volume":"25K",
			"count":"89",
			"owners":"50",
			"floorPrice":"9 Ether",
			"tradedVolumes":"10",
			"eyes":"3",
			"twitterHandle": "@nfthandlel48",
			"webHandel":"http://www.opensea.com",
			"rating":"5.2/10",
			"wishlistCount":"7897",
			"address":"some address",
			"blockchain":"ethereum",
			"metadata":"some metadata",
			"creatorFees":"5 Ether",
	  	"traits": [
				{
					"name": "Background",
					"value": "Red"
				},
				{
					"name": "Clothes",
					"value": "Formal"
				},
				{
					"name": "Hat",
					"value": "Square"
				},
				{
					"name": "Mouth",
					"value": "Round"
				},
				{
					"name": "Fur",
					"value": "Albino"
				}
			]
 },
 
  {
            "id": 2,
            "num_sales": 897,
            "background": "orange",
            "image_url": "https://lh3.googleusercontent.com/DJiRzptQzaBlulkVtIvNSogwPv2K_t6TKY3az8pr-16e0TnrFN6SIVdbsbEsuNgVU-3pZvels2KsOlmZv_bSOxERV0SgeDxpX4kMDw=s120",
            "image_thumbnail_url": "https://lh3.googleusercontent.com/DJiRzptQzaBlulkVtIvNSogwPv2K_t6TKY3az8pr-16e0TnrFN6SIVdbsbEsuNgVU-3pZvels2KsOlmZv_bSOxERV0SgeDxpX4kMDw=s120",
            "name": "nft sample 1",
            "description": "Mutant Bears Yacht Club holders are invited to join the Bully Apes - a project building tools to level the playing field and support creators. Details on Twitter @BullyApes or visit https://mintbullyape.com/ to MINT NOW! Official Website https://bullyape.com/ Collection on OpenSea: https://opensea.io/collection/bullyapes",
            "tokenId": "0x763b669e6d35b4962",
			"standard":"non-fungible",
			"currnetBid":"10 Ether",
			"convertValue":"$797979",
			"volume":"4654K",
			"count":"78",
			"owners":"89",
			"floorPrice":"9 Ether",
			"tradedVolumes":"10",
			"eyes":"3",
			"twitterHandle": "@nfthandlel1231",
			"webHandel":"http://www.opensea.com",
			"rating":"8.5/10",
			"wishlistCount":"445",
			"address":"some address",
			"blockchain":"ethereum",
			"metadata":"some metadata",
			"creatorFees":"5 Ether",
	  	"traits": [
				{
					"name": "Background",
					"value": "Green"
				},
				{
					"name": "Clothes",
					"value": "Windbeard"
				},
				{
					"name": "Hat",
					"value": "Circle"
				},
				{
					"name": "Mouth",
					"value": "Yawn"
				},
				{
					"name": "Ears",
					"value": "Albino"
				}
			]
 },
 
  {
            "id": 3,
            "num_sales": 7979,
            "image_url": "https://lh3.googleusercontent.com/04u0EXMtTgEJqLLHuP84kOOX8slBoPMOim74rGawnmJFPyJCU4BMyLeEZlux07KaD5SxObckfWwO_UKIuur4QV3RF6VoN01AaY8Phg=s120",
            "image_thumbnail_url": "https://lh3.googleusercontent.com/04u0EXMtTgEJqLLHuP84kOOX8slBoPMOim74rGawnmJFPyJCU4BMyLeEZlux07KaD5SxObckfWwO_UKIuur4QV3RF6VoN01AaY8Phg=s120",
            "name": "nft sample 5",
            "description": "Mutant Bears Yacht Club holders are invited to join the Bully Apes - a project building tools to level the playing field and support creators. Details on Twitter @BullyApes or visit https://mintbullyape.com/ to MINT NOW! Official Website https://bullyape.com/ Collection on OpenSea: https://opensea.io/collection/bullyapes",
            "tokenId": "51bda6b3b669e6d35b4962",
			"standard":"fungible",
			"currnetBid":"45 Ether",
			"convertValue":"$454564",
			"volume":"250K",
			"count":"360",
			"owners":"50",
			"floorPrice":"9 Ether",
			"tradedVolumes":"10",
			"twitterHandle": "@nfthandle789",
			"webHandel":"http://www.opensea.com",
			"rating":"5/10",
			"wishlistCount":"45",
			"address":"some address",
			"blockchain":"ethereum",
			"metadata":"some metadata",
			"creatorFees":"5 Ether",
	  "traits": [
				{
					"name": "Background",
					"value": "White"
				},
				{
					"name": "Clothes",
					"value": "Oilve"
				},
				{
					"name": "Hat",
					"value": "Round"
				},
				{
					"name": "Mouth",
					"value": "Yawn"
				},
				{
					"name": "Nose",
					"value": "Weird"
				}
			]
 },
 
  {
            "id": 4,
            "num_sales": 7987897,
            "image_url": "https://lh3.googleusercontent.com/04u0EXMtTgEJqLLHuP84kOOX8slBoPMOim74rGawnmJFPyJCU4BMyLeEZlux07KaD5SxObckfWwO_UKIuur4QV3RF6VoN01AaY8Phg=s120",
            "image_thumbnail_url": "https://lh3.googleusercontent.com/04u0EXMtTgEJqLLHuP84kOOX8slBoPMOim74rGawnmJFPyJCU4BMyLeEZlux07KaD5SxObckfWwO_UKIuur4QV3RF6VoN01AaY8Phg=s120",
            "name": "nft sample 1",
            "description": "Mutant Bears Yacht Club holders are invited to join the Bully Apes - a project building tools to level the playing field and support creators. Details on Twitter @BullyApes or visit https://mintbullyape.com/ to MINT NOW! Official Website https://bullyape.com/ Collection on OpenSea: https://opensea.io/collection/bullyapes",
            "tokenId": "0xa6b3b669e6d35b4962",
			"standard":"non-fungible",
			"currnetBid":"10 Ether",
			"convertValue":"$4646",
			"volume":"250K",
			"count":"7897",
			"owners":"50",
			"floorPrice":"9 Ether",
			"tradedVolumes":"10",
			"twitterHandle": "@nfthandlel45",
			"webHandel":"http://www.opensea.com",
			"rating":"2/10",
			"wishlistCount":"7987",
			"address":"some address",
			"blockchain":"ethereum",
			"metadata":"some metadata",
			"creatorFees":"5 Ether",
	  		"traits": [
				{
					"name": "Background",
					"value": "Orange"
				},
				{
					"name": "Clothes",
					"value": "Windbeard"
				},
				{
					"name": "Hat",
					"value": "Sweatband"
				},
				{
					"name": "Mouth",
					"value": "Yawn"
				},
				{
					"name": "Fur",
					"value": "Albino"
				}
			]
 }
 ]